{
    "index": {
        "download_fdroid": "Baixar F-Droid", 
        "gpg_signature": "Assinatura PGP", 
        "introduction": "F-Droid é um catálogo instalável de softwares de código livre e aberto (FOSS) para a plataforma Android. O aplicativo facilita a busca e a instalação, além ficar de olho nas atualizações do seu dispositivo.", 
        "screenshot": "Captura de tela do aplicativo F-Droid para Android", 
        "title": "O que é F-Droid?"
    }, 
    "navigation": {
        "about": "Sobre", 
        "browse": "Navegar", 
        "contribute": "Contribua", 
        "documentation": "Documentos", 
        "forum": "Fórum", 
        "issues": "Problemas", 
        "news": "Notícias", 
        "repomaker": "Criador de Repositórios", 
        "tutorials": "Tutoriais"
    }, 
    "package": {
        "author": "Autor(a)", 
        "build_metadata": "Construa Metadados", 
        "changelog": "Histórico de modificações", 
        "donate": "Doar", 
        "download": "Baixar [file_extension]", 
        "flattr": "Flattr", 
        "gpg_signature": "Assinatura PGP", 
        "issue_tracker": "Rastreador de Problemas", 
        "liberapay": "Liberapay", 
        "license": "Licença", 
        "minimum_android_version": "Esta versão requer o Android [android_version] ou mais atual.", 
        "new_in_version": "Novo na versão [latest_version]", 
        "packages": "Pacotes", 
        "permissions": "Permissões", 
        "signed_by_developer": "Construído e assinado pelo desenvolvedor original.", 
        "signed_by_fdroid": "Construído e assinado por F-Droid, e garantida sua correspondência com <a href=\"[source_code_url]\">este pacote de fontes</a>.", 
        "source_code": "Código Fonte", 
        "suggest_downloading_via_fdroid": "Embora os downloads de APK estejam disponíveis abaixo, você deve estar ciente que ao instalá-los dessa forma você não receberá notificações de atualização, além de ser um modo menos seguro de baixá-los. Recomendamos que você instale o cliente F-Droid e o utilize.", 
        "technical_info": "Informação técnica", 
        "version_info": "<b>Versão [package_version]</b> ([package_version_code]) - Adicionada em [package_added_date]", 
        "website": "Website"
    }, 
    "sidebars": {
        "donate": {
            "bank_transfer_name": "Nome", 
            "bitcoin_alt": "Doar via Bitcoin", 
            "flattr_alt": "Doar via Flattr", 
            "heading": "Fazer doação", 
            "liberapay_alt": "Doar via Liberapay", 
            "paypal_alt": "Doar via PayPal", 
            "powered_by_donations": "F-Droid é sustentada por suas doações!", 
            "via_bank_transfer": "Transferência bancária"
        }, 
        "last_updated": {
            "heading": "Última atualização"
        }, 
        "latest_packages": {
            "heading": "Aplicativos mais recentes"
        }, 
        "news": {
            "heading": "Novidades"
        }, 
        "search": {
            "heading": "Procurar aplicativos", 
            "noscript": "O JavaScript precisa ser habilitado"
        }
    }
}